%YAML 1.1
%TAG !u! tag:unity3d.com,2011:
--- !u!1001 &100100000
Prefab:
  m_ObjectHideFlags: 1
  serializedVersion: 2
  m_Modification:
    m_TransformParent: {fileID: 0}
    m_Modifications: []
    m_RemovedComponents: []
  m_ParentPrefab: {fileID: 0}
  m_RootGameObject: {fileID: 1802043952937296}
  m_IsPrefabParent: 1
--- !u!1 &1802043952937296
GameObject:
  m_ObjectHideFlags: 0
  m_PrefabParentObject: {fileID: 0}
  m_PrefabInternal: {fileID: 100100000}
  serializedVersion: 5
  m_Component:
  - component: {fileID: 4083571779835254}
  - component: {fileID: 2569400267963158528}
  m_Layer: 31
  m_Name: New Palette
  m_TagString: Untagged
  m_Icon: {fileID: 0}
  m_NavMeshLayer: 0
  m_StaticEditorFlags: 0
  m_IsActive: 1
--- !u!1 &1920032891858886
GameObject:
  m_ObjectHideFlags: 0
  m_PrefabParentObject: {fileID: 0}
  m_PrefabInternal: {fileID: 100100000}
  serializedVersion: 5
  m_Component:
  - component: {fileID: 4261186993178732}
  - component: {fileID: 8195094280545466848}
  - component: {fileID: 3664157345769878680}
  m_Layer: 31
  m_Name: Layer1
  m_TagString: Untagged
  m_Icon: {fileID: 0}
  m_NavMeshLayer: 0
  m_StaticEditorFlags: 0
  m_IsActive: 1
--- !u!4 &4083571779835254
Transform:
  m_ObjectHideFlags: 1
  m_PrefabParentObject: {fileID: 0}
  m_PrefabInternal: {fileID: 100100000}
  m_GameObject: {fileID: 1802043952937296}
  m_LocalRotation: {x: 0, y: 0, z: 0, w: 1}
  m_LocalPosition: {x: 0, y: 0, z: 0}
  m_LocalScale: {x: 1, y: 1, z: 1}
  m_Children:
  - {fileID: 4261186993178732}
  m_Father: {fileID: 0}
  m_RootOrder: 0
  m_LocalEulerAnglesHint: {x: 0, y: 0, z: 0}
--- !u!4 &4261186993178732
Transform:
  m_ObjectHideFlags: 1
  m_PrefabParentObject: {fileID: 0}
  m_PrefabInternal: {fileID: 100100000}
  m_GameObject: {fileID: 1920032891858886}
  m_LocalRotation: {x: -0, y: -0, z: -0, w: 1}
  m_LocalPosition: {x: 0, y: 0, z: 0}
  m_LocalScale: {x: 1, y: 1, z: 1}
  m_Children: []
  m_Father: {fileID: 4083571779835254}
  m_RootOrder: 0
  m_LocalEulerAnglesHint: {x: 0, y: 0, z: 0}
--- !u!114 &114151134047384026
MonoBehaviour:
  m_ObjectHideFlags: 0
  m_PrefabParentObject: {fileID: 0}
  m_PrefabInternal: {fileID: 0}
  m_GameObject: {fileID: 0}
  m_Enabled: 1
  m_EditorHideFlags: 1
  m_Script: {fileID: 12395, guid: 0000000000000000e000000000000000, type: 0}
  m_Name: Palette Settings
  m_EditorClassIdentifier: 
  cellSizing: 0
--- !u!156049354 &2569400267963158528
Grid:
  m_ObjectHideFlags: 1
  m_PrefabParentObject: {fileID: 0}
  m_PrefabInternal: {fileID: 100100000}
  m_GameObject: {fileID: 1802043952937296}
  m_Enabled: 1
  m_CellSize: {x: 1, y: 1, z: 0}
  m_CellGap: {x: 0, y: 0, z: 0}
  m_CellLayout: 0
  m_CellSwizzle: 0
--- !u!483693784 &3664157345769878680
TilemapRenderer:
  m_ObjectHideFlags: 1
  m_PrefabParentObject: {fileID: 0}
  m_PrefabInternal: {fileID: 100100000}
  m_GameObject: {fileID: 1920032891858886}
  m_Enabled: 0
  m_CastShadows: 0
  m_ReceiveShadows: 0
  m_DynamicOccludee: 0
  m_MotionVectors: 1
  m_LightProbeUsage: 0
  m_ReflectionProbeUsage: 0
  m_Materials:
  - {fileID: 10754, guid: 0000000000000000f000000000000000, type: 0}
  m_StaticBatchInfo:
    firstSubMesh: 0
    subMeshCount: 0
  m_StaticBatchRoot: {fileID: 0}
  m_ProbeAnchor: {fileID: 0}
  m_LightProbeVolumeOverride: {fileID: 0}
  m_ScaleInLightmap: 1
  m_PreserveUVs: 0
  m_IgnoreNormalsForChartDetection: 0
  m_ImportantGI: 0
  m_StitchLightmapSeams: 0
  m_SelectedEditorRenderState: 0
  m_MinimumChartSize: 4
  m_AutoUVMaxDistance: 0.5
  m_AutoUVMaxAngle: 89
  m_LightmapParameters: {fileID: 0}
  m_SortingLayerID: 0
  m_SortingLayer: 0
  m_SortingOrder: 0
  m_ChunkSize: {x: 32, y: 32, z: 32}
  m_MaxChunkCount: 16
  m_MaxFrameAge: 16
  m_SortOrder: 0
  m_MaskInteraction: 0
--- !u!1839735485 &8195094280545466848
Tilemap:
  m_ObjectHideFlags: 1
  m_PrefabParentObject: {fileID: 0}
  m_PrefabInternal: {fileID: 100100000}
  m_GameObject: {fileID: 1920032891858886}
  m_Enabled: 1
  m_Tiles:
  - first: {x: -2, y: -15, z: 0}
    second:
      m_TileIndex: 102
      m_TileSpriteIndex: 102
      m_TileMatrixIndex: 0
      m_TileColorIndex: 0
      m_ObjectToInstantiate: {fileID: 0}
      m_TileFlags: 1
      m_ColliderType: 1
  - first: {x: -1, y: -15, z: 0}
    second:
      m_TileIndex: 103
      m_TileSpriteIndex: 103
      m_TileMatrixIndex: 0
      m_TileColorIndex: 0
      m_ObjectToInstantiate: {fileID: 0}
      m_TileFlags: 1
      m_ColliderType: 1
  - first: {x: 0, y: -15, z: 0}
    second:
      m_TileIndex: 104
      m_TileSpriteIndex: 104
      m_TileMatrixIndex: 0
      m_TileColorIndex: 0
      m_ObjectToInstantiate: {fileID: 0}
      m_TileFlags: 1
      m_ColliderType: 1
  - first: {x: 1, y: -15, z: 0}
    second:
      m_TileIndex: 105
      m_TileSpriteIndex: 105
      m_TileMatrixIndex: 0
      m_TileColorIndex: 0
      m_ObjectToInstantiate: {fileID: 0}
      m_TileFlags: 1
      m_ColliderType: 1
  - first: {x: 2, y: -15, z: 0}
    second:
      m_TileIndex: 106
      m_TileSpriteIndex: 106
      m_TileMatrixIndex: 0
      m_TileColorIndex: 0
      m_ObjectToInstantiate: {fileID: 0}
      m_TileFlags: 1
      m_ColliderType: 1
  - first: {x: 3, y: -15, z: 0}
    second:
      m_TileIndex: 107
      m_TileSpriteIndex: 107
      m_TileMatrixIndex: 0
      m_TileColorIndex: 0
      m_ObjectToInstantiate: {fileID: 0}
      m_TileFlags: 1
      m_ColliderType: 1
  - first: {x: -2, y: -14, z: 0}
    second:
      m_TileIndex: 96
      m_TileSpriteIndex: 96
      m_TileMatrixIndex: 0
      m_TileColorIndex: 0
      m_ObjectToInstantiate: {fileID: 0}
      m_TileFlags: 1
      m_ColliderType: 1
  - first: {x: -1, y: -14, z: 0}
    second:
      m_TileIndex: 97
      m_TileSpriteIndex: 97
      m_TileMatrixIndex: 0
      m_TileColorIndex: 0
      m_ObjectToInstantiate: {fileID: 0}
      m_TileFlags: 1
      m_ColliderType: 1
  - first: {x: 0, y: -14, z: 0}
    second:
      m_TileIndex: 98
      m_TileSpriteIndex: 98
      m_TileMatrixIndex: 0
      m_TileColorIndex: 0
      m_ObjectToInstantiate: {fileID: 0}
      m_TileFlags: 1
      m_ColliderType: 1
  - first: {x: 1, y: -14, z: 0}
    second:
      m_TileIndex: 99
      m_TileSpriteIndex: 99
      m_TileMatrixIndex: 0
      m_TileColorIndex: 0
      m_ObjectToInstantiate: {fileID: 0}
      m_TileFlags: 1
      m_ColliderType: 1
  - first: {x: 2, y: -14, z: 0}
    second:
      m_TileIndex: 100
      m_TileSpriteIndex: 100
      m_TileMatrixIndex: 0
      m_TileColorIndex: 0
      m_ObjectToInstantiate: {fileID: 0}
      m_TileFlags: 1
      m_ColliderType: 1
  - first: {x: 3, y: -14, z: 0}
    second:
      m_TileIndex: 101
      m_TileSpriteIndex: 101
      m_TileMatrixIndex: 0
      m_TileColorIndex: 0
      m_ObjectToInstantiate: {fileID: 0}
      m_TileFlags: 1
      m_ColliderType: 1
  - first: {x: -2, y: -13, z: 0}
    second:
      m_TileIndex: 90
      m_TileSpriteIndex: 90
      m_TileMatrixIndex: 0
      m_TileColorIndex: 0
      m_ObjectToInstantiate: {fileID: 0}
      m_TileFlags: 1
      m_ColliderType: 1
  - first: {x: -1, y: -13, z: 0}
    second:
      m_TileIndex: 91
      m_TileSpriteIndex: 91
      m_TileMatrixIndex: 0
      m_TileColorIndex: 0
      m_ObjectToInstantiate: {fileID: 0}
      m_TileFlags: 1
      m_ColliderType: 1
  - first: {x: 0, y: -13, z: 0}
    second:
      m_TileIndex: 92
      m_TileSpriteIndex: 92
      m_TileMatrixIndex: 0
      m_TileColorIndex: 0
      m_ObjectToInstantiate: {fileID: 0}
      m_TileFlags: 1
      m_ColliderType: 1
  - first: {x: 1, y: -13, z: 0}
    second:
      m_TileIndex: 93
      m_TileSpriteIndex: 93
      m_TileMatrixIndex: 0
      m_TileColorIndex: 0
      m_ObjectToInstantiate: {fileID: 0}
      m_TileFlags: 1
      m_ColliderType: 1
  - first: {x: 2, y: -13, z: 0}
    second:
      m_TileIndex: 94
      m_TileSpriteIndex: 94
      m_TileMatrixIndex: 0
      m_TileColorIndex: 0
      m_ObjectToInstantiate: {fileID: 0}
      m_TileFlags: 1
      m_ColliderType: 1
  - first: {x: 3, y: -13, z: 0}
    second:
      m_TileIndex: 95
      m_TileSpriteIndex: 95
      m_TileMatrixIndex: 0
      m_TileColorIndex: 0
      m_ObjectToInstantiate: {fileID: 0}
      m_TileFlags: 1
      m_ColliderType: 1
  - first: {x: -2, y: -12, z: 0}
    second:
      m_TileIndex: 84
      m_TileSpriteIndex: 84
      m_TileMatrixIndex: 0
      m_TileColorIndex: 0
      m_ObjectToInstantiate: {fileID: 0}
      m_TileFlags: 1
      m_ColliderType: 1
  - first: {x: -1, y: -12, z: 0}
    second:
      m_TileIndex: 85
      m_TileSpriteIndex: 85
      m_TileMatrixIndex: 0
      m_TileColorIndex: 0
      m_ObjectToInstantiate: {fileID: 0}
      m_TileFlags: 1
      m_ColliderType: 1
  - first: {x: 0, y: -12, z: 0}
    second:
      m_TileIndex: 86
      m_TileSpriteIndex: 86
      m_TileMatrixIndex: 0
      m_TileColorIndex: 0
      m_ObjectToInstantiate: {fileID: 0}
      m_TileFlags: 1
      m_ColliderType: 1
  - first: {x: 1, y: -12, z: 0}
    second:
      m_TileIndex: 87
      m_TileSpriteIndex: 87
      m_TileMatrixIndex: 0
      m_TileColorIndex: 0
      m_ObjectToInstantiate: {fileID: 0}
      m_TileFlags: 1
      m_ColliderType: 1
  - first: {x: 2, y: -12, z: 0}
    second:
      m_TileIndex: 88
      m_TileSpriteIndex: 88
      m_TileMatrixIndex: 0
      m_TileColorIndex: 0
      m_ObjectToInstantiate: {fileID: 0}
      m_TileFlags: 1
      m_ColliderType: 1
  - first: {x: 3, y: -12, z: 0}
    second:
      m_TileIndex: 89
      m_TileSpriteIndex: 89
      m_TileMatrixIndex: 0
      m_TileColorIndex: 0
      m_ObjectToInstantiate: {fileID: 0}
      m_TileFlags: 1
      m_ColliderType: 1
  - first: {x: -2, y: -11, z: 0}
    second:
      m_TileIndex: 77
      m_TileSpriteIndex: 77
      m_TileMatrixIndex: 0
      m_TileColorIndex: 0
      m_ObjectToInstantiate: {fileID: 0}
      m_TileFlags: 1
      m_ColliderType: 1
  - first: {x: -1, y: -11, z: 0}
    second:
      m_TileIndex: 78
      m_TileSpriteIndex: 78
      m_TileMatrixIndex: 0
      m_TileColorIndex: 0
      m_ObjectToInstantiate: {fileID: 0}
      m_TileFlags: 1
      m_ColliderType: 1
  - first: {x: 0, y: -11, z: 0}
    second:
      m_TileIndex: 79
      m_TileSpriteIndex: 79
      m_TileMatrixIndex: 0
      m_TileColorIndex: 0
      m_ObjectToInstantiate: {fileID: 0}
      m_TileFlags: 1
      m_ColliderType: 1
  - first: {x: 1, y: -11, z: 0}
    second:
      m_TileIndex: 80
      m_TileSpriteIndex: 80
      m_TileMatrixIndex: 0
      m_TileColorIndex: 0
      m_ObjectToInstantiate: {fileID: 0}
      m_TileFlags: 1
      m_ColliderType: 1
  - first: {x: 2, y: -11, z: 0}
    second:
      m_TileIndex: 81
      m_TileSpriteIndex: 81
      m_TileMatrixIndex: 0
      m_TileColorIndex: 0
      m_ObjectToInstantiate: {fileID: 0}
      m_TileFlags: 1
      m_ColliderType: 1
  - first: {x: 3, y: -11, z: 0}
    second:
      m_TileIndex: 82
      m_TileSpriteIndex: 82
      m_TileMatrixIndex: 0
      m_TileColorIndex: 0
      m_ObjectToInstantiate: {fileID: 0}
      m_TileFlags: 1
      m_ColliderType: 1
  - first: {x: 4, y: -11, z: 0}
    second:
      m_TileIndex: 83
      m_TileSpriteIndex: 83
      m_TileMatrixIndex: 0
      m_TileColorIndex: 0
      m_ObjectToInstantiate: {fileID: 0}
      m_TileFlags: 1
      m_ColliderType: 1
  - first: {x: -2, y: -10, z: 0}
    second:
      m_TileIndex: 70
      m_TileSpriteIndex: 70
      m_TileMatrixIndex: 0
      m_TileColorIndex: 0
      m_ObjectToInstantiate: {fileID: 0}
      m_TileFlags: 1
      m_ColliderType: 1
  - first: {x: -1, y: -10, z: 0}
    second:
      m_TileIndex: 71
      m_TileSpriteIndex: 71
      m_TileMatrixIndex: 0
      m_TileColorIndex: 0
      m_ObjectToInstantiate: {fileID: 0}
      m_TileFlags: 1
      m_ColliderType: 1
  - first: {x: 0, y: -10, z: 0}
    second:
      m_TileIndex: 72
      m_TileSpriteIndex: 72
      m_TileMatrixIndex: 0
      m_TileColorIndex: 0
      m_ObjectToInstantiate: {fileID: 0}
      m_TileFlags: 1
      m_ColliderType: 1
  - first: {x: 1, y: -10, z: 0}
    second:
      m_TileIndex: 73
      m_TileSpriteIndex: 73
      m_TileMatrixIndex: 0
      m_TileColorIndex: 0
      m_ObjectToInstantiate: {fileID: 0}
      m_TileFlags: 1
      m_ColliderType: 1
  - first: {x: 2, y: -10, z: 0}
    second:
      m_TileIndex: 74
      m_TileSpriteIndex: 74
      m_TileMatrixIndex: 0
      m_TileColorIndex: 0
      m_ObjectToInstantiate: {fileID: 0}
      m_TileFlags: 1
      m_ColliderType: 1
  - first: {x: 3, y: -10, z: 0}
    second:
      m_TileIndex: 75
      m_TileSpriteIndex: 75
      m_TileMatrixIndex: 0
      m_TileColorIndex: 0
      m_ObjectToInstantiate: {fileID: 0}
      m_TileFlags: 1
      m_ColliderType: 1
  - first: {x: 4, y: -10, z: 0}
    second:
      m_TileIndex: 76
      m_TileSpriteIndex: 76
      m_TileMatrixIndex: 0
      m_TileColorIndex: 0
      m_ObjectToInstantiate: {fileID: 0}
      m_TileFlags: 1
      m_ColliderType: 1
  - first: {x: -2, y: -9, z: 0}
    second:
      m_TileIndex: 63
      m_TileSpriteIndex: 63
      m_TileMatrixIndex: 0
      m_TileColorIndex: 0
      m_ObjectToInstantiate: {fileID: 0}
      m_TileFlags: 1
      m_ColliderType: 1
  - first: {x: -1, y: -9, z: 0}
    second:
      m_TileIndex: 64
      m_TileSpriteIndex: 64
      m_TileMatrixIndex: 0
      m_TileColorIndex: 0
      m_ObjectToInstantiate: {fileID: 0}
      m_TileFlags: 1
      m_ColliderType: 1
  - first: {x: 0, y: -9, z: 0}
    second:
      m_TileIndex: 65
      m_TileSpriteIndex: 65
      m_TileMatrixIndex: 0
      m_TileColorIndex: 0
      m_ObjectToInstantiate: {fileID: 0}
      m_TileFlags: 1
      m_ColliderType: 1
  - first: {x: 1, y: -9, z: 0}
    second:
      m_TileIndex: 66
      m_TileSpriteIndex: 66
      m_TileMatrixIndex: 0
      m_TileColorIndex: 0
      m_ObjectToInstantiate: {fileID: 0}
      m_TileFlags: 1
      m_ColliderType: 1
  - first: {x: 2, y: -9, z: 0}
    second:
      m_TileIndex: 67
      m_TileSpriteIndex: 67
      m_TileMatrixIndex: 0
      m_TileColorIndex: 0
      m_ObjectToInstantiate: {fileID: 0}
      m_TileFlags: 1
      m_ColliderType: 1
  - first: {x: 3, y: -9, z: 0}
    second:
      m_TileIndex: 68
      m_TileSpriteIndex: 68
      m_TileMatrixIndex: 0
      m_TileColorIndex: 0
      m_ObjectToInstantiate: {fileID: 0}
      m_TileFlags: 1
      m_ColliderType: 1
  - first: {x: 4, y: -9, z: 0}
    second:
      m_TileIndex: 69
      m_TileSpriteIndex: 69
      m_TileMatrixIndex: 0
      m_TileColorIndex: 0
      m_ObjectToInstantiate: {fileID: 0}
      m_TileFlags: 1
      m_ColliderType: 1
  - first: {x: -2, y: -8, z: 0}
    second:
      m_TileIndex: 56
      m_TileSpriteIndex: 56
      m_TileMatrixIndex: 0
      m_TileColorIndex: 0
      m_ObjectToInstantiate: {fileID: 0}
      m_TileFlags: 1
      m_ColliderType: 1
  - first: {x: -1, y: -8, z: 0}
    second:
      m_TileIndex: 57
      m_TileSpriteIndex: 57
      m_TileMatrixIndex: 0
      m_TileColorIndex: 0
      m_ObjectToInstantiate: {fileID: 0}
      m_TileFlags: 1
      m_ColliderType: 1
  - first: {x: 0, y: -8, z: 0}
    second:
      m_TileIndex: 58
      m_TileSpriteIndex: 58
      m_TileMatrixIndex: 0
      m_TileColorIndex: 0
      m_ObjectToInstantiate: {fileID: 0}
      m_TileFlags: 1
      m_ColliderType: 1
  - first: {x: 1, y: -8, z: 0}
    second:
      m_TileIndex: 59
      m_TileSpriteIndex: 59
      m_TileMatrixIndex: 0
      m_TileColorIndex: 0
      m_ObjectToInstantiate: {fileID: 0}
      m_TileFlags: 1
      m_ColliderType: 1
  - first: {x: 2, y: -8, z: 0}
    second:
      m_TileIndex: 60
      m_TileSpriteIndex: 60
      m_TileMatrixIndex: 0
      m_TileColorIndex: 0
      m_ObjectToInstantiate: {fileID: 0}
      m_TileFlags: 1
      m_ColliderType: 1
  - first: {x: 3, y: -8, z: 0}
    second:
      m_TileIndex: 61
      m_TileSpriteIndex: 61
      m_TileMatrixIndex: 0
      m_TileColorIndex: 0
      m_ObjectToInstantiate: {fileID: 0}
      m_TileFlags: 1
      m_ColliderType: 1
  - first: {x: 4, y: -8, z: 0}
    second:
      m_TileIndex: 62
      m_TileSpriteIndex: 62
      m_TileMatrixIndex: 0
      m_TileColorIndex: 0
      m_ObjectToInstantiate: {fileID: 0}
      m_TileFlags: 1
      m_ColliderType: 1
  - first: {x: -2, y: -7, z: 0}
    second:
      m_TileIndex: 49
      m_TileSpriteIndex: 49
      m_TileMatrixIndex: 0
      m_TileColorIndex: 0
      m_ObjectToInstantiate: {fileID: 0}
      m_TileFlags: 1
      m_ColliderType: 1
  - first: {x: -1, y: -7, z: 0}
    second:
      m_TileIndex: 50
      m_TileSpriteIndex: 50
      m_TileMatrixIndex: 0
      m_TileColorIndex: 0
      m_ObjectToInstantiate: {fileID: 0}
      m_TileFlags: 1
      m_ColliderType: 1
  - first: {x: 0, y: -7, z: 0}
    second:
      m_TileIndex: 51
      m_TileSpriteIndex: 51
      m_TileMatrixIndex: 0
      m_TileColorIndex: 0
      m_ObjectToInstantiate: {fileID: 0}
      m_TileFlags: 1
      m_ColliderType: 1
  - first: {x: 1, y: -7, z: 0}
    second:
      m_TileIndex: 52
      m_TileSpriteIndex: 52
      m_TileMatrixIndex: 0
      m_TileColorIndex: 0
      m_ObjectToInstantiate: {fileID: 0}
      m_TileFlags: 1
      m_ColliderType: 1
  - first: {x: 2, y: -7, z: 0}
    second:
      m_TileIndex: 53
      m_TileSpriteIndex: 53
      m_TileMatrixIndex: 0
      m_TileColorIndex: 0
      m_ObjectToInstantiate: {fileID: 0}
      m_TileFlags: 1
      m_ColliderType: 1
  - first: {x: 3, y: -7, z: 0}
    second:
      m_TileIndex: 54
      m_TileSpriteIndex: 54
      m_TileMatrixIndex: 0
      m_TileColorIndex: 0
      m_ObjectToInstantiate: {fileID: 0}
      m_TileFlags: 1
      m_ColliderType: 1
  - first: {x: 4, y: -7, z: 0}
    second:
      m_TileIndex: 55
      m_TileSpriteIndex: 55
      m_TileMatrixIndex: 0
      m_TileColorIndex: 0
      m_ObjectToInstantiate: {fileID: 0}
      m_TileFlags: 1
      m_ColliderType: 1
  - first: {x: -2, y: -6, z: 0}
    second:
      m_TileIndex: 42
      m_TileSpriteIndex: 42
      m_TileMatrixIndex: 0
      m_TileColorIndex: 0
      m_ObjectToInstantiate: {fileID: 0}
      m_TileFlags: 1
      m_ColliderType: 1
  - first: {x: -1, y: -6, z: 0}
    second:
      m_TileIndex: 43
      m_TileSpriteIndex: 43
      m_TileMatrixIndex: 0
      m_TileColorIndex: 0
      m_ObjectToInstantiate: {fileID: 0}
      m_TileFlags: 1
      m_ColliderType: 1
  - first: {x: 0, y: -6, z: 0}
    second:
      m_TileIndex: 44
      m_TileSpriteIndex: 44
      m_TileMatrixIndex: 0
      m_TileColorIndex: 0
      m_ObjectToInstantiate: {fileID: 0}
      m_TileFlags: 1
      m_ColliderType: 1
  - first: {x: 1, y: -6, z: 0}
    second:
      m_TileIndex: 45
      m_TileSpriteIndex: 45
      m_TileMatrixIndex: 0
      m_TileColorIndex: 0
      m_ObjectToInstantiate: {fileID: 0}
      m_TileFlags: 1
      m_ColliderType: 1
  - first: {x: 2, y: -6, z: 0}
    second:
      m_TileIndex: 46
      m_TileSpriteIndex: 46
      m_TileMatrixIndex: 0
      m_TileColorIndex: 0
      m_ObjectToInstantiate: {fileID: 0}
      m_TileFlags: 1
      m_ColliderType: 1
  - first: {x: 3, y: -6, z: 0}
    second:
      m_TileIndex: 47
      m_TileSpriteIndex: 47
      m_TileMatrixIndex: 0
      m_TileColorIndex: 0
      m_ObjectToInstantiate: {fileID: 0}
      m_TileFlags: 1
      m_ColliderType: 1
  - first: {x: 4, y: -6, z: 0}
    second:
      m_TileIndex: 48
      m_TileSpriteIndex: 48
      m_TileMatrixIndex: 0
      m_TileColorIndex: 0
      m_ObjectToInstantiate: {fileID: 0}
      m_TileFlags: 1
      m_ColliderType: 1
  - first: {x: -2, y: -5, z: 0}
    second:
      m_TileIndex: 35
      m_TileSpriteIndex: 35
      m_TileMatrixIndex: 0
      m_TileColorIndex: 0
      m_ObjectToInstantiate: {fileID: 0}
      m_TileFlags: 1
      m_ColliderType: 1
  - first: {x: -1, y: -5, z: 0}
    second:
      m_TileIndex: 36
      m_TileSpriteIndex: 36
      m_TileMatrixIndex: 0
      m_TileColorIndex: 0
      m_ObjectToInstantiate: {fileID: 0}
      m_TileFlags: 1
      m_ColliderType: 1
  - first: {x: 0, y: -5, z: 0}
    second:
      m_TileIndex: 37
      m_TileSpriteIndex: 37
      m_TileMatrixIndex: 0
      m_TileColorIndex: 0
      m_ObjectToInstantiate: {fileID: 0}
      m_TileFlags: 1
      m_ColliderType: 1
  - first: {x: 1, y: -5, z: 0}
    second:
      m_TileIndex: 38
      m_TileSpriteIndex: 38
      m_TileMatrixIndex: 0
      m_TileColorIndex: 0
      m_ObjectToInstantiate: {fileID: 0}
      m_TileFlags: 1
      m_ColliderType: 1
  - first: {x: 2, y: -5, z: 0}
    second:
      m_TileIndex: 39
      m_TileSpriteIndex: 39
      m_TileMatrixIndex: 0
      m_TileColorIndex: 0
      m_ObjectToInstantiate: {fileID: 0}
      m_TileFlags: 1
      m_ColliderType: 1
  - first: {x: 3, y: -5, z: 0}
    second:
      m_TileIndex: 40
      m_TileSpriteIndex: 40
      m_TileMatrixIndex: 0
      m_TileColorIndex: 0
      m_ObjectToInstantiate: {fileID: 0}
      m_TileFlags: 1
      m_ColliderType: 1
  - first: {x: 4, y: -5, z: 0}
    second:
      m_TileIndex: 41
      m_TileSpriteIndex: 41
      m_TileMatrixIndex: 0
      m_TileColorIndex: 0
      m_ObjectToInstantiate: {fileID: 0}
      m_TileFlags: 1
      m_ColliderType: 1
  - first: {x: -2, y: -4, z: 0}
    second:
      m_TileIndex: 28
      m_TileSpriteIndex: 28
      m_TileMatrixIndex: 0
      m_TileColorIndex: 0
      m_ObjectToInstantiate: {fileID: 0}
      m_TileFlags: 1
      m_ColliderType: 1
  - first: {x: -1, y: -4, z: 0}
    second:
      m_TileIndex: 29
      m_TileSpriteIndex: 29
      m_TileMatrixIndex: 0
      m_TileColorIndex: 0
      m_ObjectToInstantiate: {fileID: 0}
      m_TileFlags: 1
      m_ColliderType: 1
  - first: {x: 0, y: -4, z: 0}
    second:
      m_TileIndex: 30
      m_TileSpriteIndex: 30
      m_TileMatrixIndex: 0
      m_TileColorIndex: 0
      m_ObjectToInstantiate: {fileID: 0}
      m_TileFlags: 1
      m_ColliderType: 1
  - first: {x: 1, y: -4, z: 0}
    second:
      m_TileIndex: 31
      m_TileSpriteIndex: 31
      m_TileMatrixIndex: 0
      m_TileColorIndex: 0
      m_ObjectToInstantiate: {fileID: 0}
      m_TileFlags: 1
      m_ColliderType: 1
  - first: {x: 2, y: -4, z: 0}
    second:
      m_TileIndex: 32
      m_TileSpriteIndex: 32
      m_TileMatrixIndex: 0
      m_TileColorIndex: 0
      m_ObjectToInstantiate: {fileID: 0}
      m_TileFlags: 1
      m_ColliderType: 1
  - first: {x: 3, y: -4, z: 0}
    second:
      m_TileIndex: 33
      m_TileSpriteIndex: 33
      m_TileMatrixIndex: 0
      m_TileColorIndex: 0
      m_ObjectToInstantiate: {fileID: 0}
      m_TileFlags: 1
      m_ColliderType: 1
  - first: {x: 4, y: -4, z: 0}
    second:
      m_TileIndex: 34
      m_TileSpriteIndex: 34
      m_TileMatrixIndex: 0
      m_TileColorIndex: 0
      m_ObjectToInstantiate: {fileID: 0}
      m_TileFlags: 1
      m_ColliderType: 1
  - first: {x: -2, y: -3, z: 0}
    second:
      m_TileIndex: 21
      m_TileSpriteIndex: 21
      m_TileMatrixIndex: 0
      m_TileColorIndex: 0
      m_ObjectToInstantiate: {fileID: 0}
      m_TileFlags: 1
      m_ColliderType: 1
  - first: {x: -1, y: -3, z: 0}
    second:
      m_TileIndex: 22
      m_TileSpriteIndex: 22
      m_TileMatrixIndex: 0
      m_TileColorIndex: 0
      m_ObjectToInstantiate: {fileID: 0}
      m_TileFlags: 1
      m_ColliderType: 1
  - first: {x: 0, y: -3, z: 0}
    second:
      m_TileIndex: 23
      m_TileSpriteIndex: 23
      m_TileMatrixIndex: 0
      m_TileColorIndex: 0
      m_ObjectToInstantiate: {fileID: 0}
      m_TileFlags: 1
      m_ColliderType: 1
  - first: {x: 1, y: -3, z: 0}
    second:
      m_TileIndex: 24
      m_TileSpriteIndex: 24
      m_TileMatrixIndex: 0
      m_TileColorIndex: 0
      m_ObjectToInstantiate: {fileID: 0}
      m_TileFlags: 1
      m_ColliderType: 1
  - first: {x: 2, y: -3, z: 0}
    second:
      m_TileIndex: 25
      m_TileSpriteIndex: 25
      m_TileMatrixIndex: 0
      m_TileColorIndex: 0
      m_ObjectToInstantiate: {fileID: 0}
      m_TileFlags: 1
      m_ColliderType: 1
  - first: {x: 3, y: -3, z: 0}
    second:
      m_TileIndex: 26
      m_TileSpriteIndex: 26
      m_TileMatrixIndex: 0
      m_TileColorIndex: 0
      m_ObjectToInstantiate: {fileID: 0}
      m_TileFlags: 1
      m_ColliderType: 1
  - first: {x: 4, y: -3, z: 0}
    second:
      m_TileIndex: 27
      m_TileSpriteIndex: 27
      m_TileMatrixIndex: 0
      m_TileColorIndex: 0
      m_ObjectToInstantiate: {fileID: 0}
      m_TileFlags: 1
      m_ColliderType: 1
  - first: {x: -2, y: -2, z: 0}
    second:
      m_TileIndex: 14
      m_TileSpriteIndex: 14
      m_TileMatrixIndex: 0
      m_TileColorIndex: 0
      m_ObjectToInstantiate: {fileID: 0}
      m_TileFlags: 1
      m_ColliderType: 1
  - first: {x: -1, y: -2, z: 0}
    second:
      m_TileIndex: 15
      m_TileSpriteIndex: 15
      m_TileMatrixIndex: 0
      m_TileColorIndex: 0
      m_ObjectToInstantiate: {fileID: 0}
      m_TileFlags: 1
      m_ColliderType: 1
  - first: {x: 0, y: -2, z: 0}
    second:
      m_TileIndex: 16
      m_TileSpriteIndex: 16
      m_TileMatrixIndex: 0
      m_TileColorIndex: 0
      m_ObjectToInstantiate: {fileID: 0}
      m_TileFlags: 1
      m_ColliderType: 1
  - first: {x: 1, y: -2, z: 0}
    second:
      m_TileIndex: 17
      m_TileSpriteIndex: 17
      m_TileMatrixIndex: 0
      m_TileColorIndex: 0
      m_ObjectToInstantiate: {fileID: 0}
      m_TileFlags: 1
      m_ColliderType: 1
  - first: {x: 2, y: -2, z: 0}
    second:
      m_TileIndex: 18
      m_TileSpriteIndex: 18
      m_TileMatrixIndex: 0
      m_TileColorIndex: 0
      m_ObjectToInstantiate: {fileID: 0}
      m_TileFlags: 1
      m_ColliderType: 1
  - first: {x: 3, y: -2, z: 0}
    second:
      m_TileIndex: 19
      m_TileSpriteIndex: 19
      m_TileMatrixIndex: 0
      m_TileColorIndex: 0
      m_ObjectToInstantiate: {fileID: 0}
      m_TileFlags: 1
      m_ColliderType: 1
  - first: {x: 4, y: -2, z: 0}
    second:
      m_TileIndex: 20
      m_TileSpriteIndex: 20
      m_TileMatrixIndex: 0
      m_TileColorIndex: 0
      m_ObjectToInstantiate: {fileID: 0}
      m_TileFlags: 1
      m_ColliderType: 1
  - first: {x: -2, y: -1, z: 0}
    second:
      m_TileIndex: 7
      m_TileSpriteIndex: 7
      m_TileMatrixIndex: 0
      m_TileColorIndex: 0
      m_ObjectToInstantiate: {fileID: 0}
      m_TileFlags: 1
      m_ColliderType: 1
  - first: {x: -1, y: -1, z: 0}
    second:
      m_TileIndex: 8
      m_TileSpriteIndex: 8
      m_TileMatrixIndex: 0
      m_TileColorIndex: 0
      m_ObjectToInstantiate: {fileID: 0}
      m_TileFlags: 1
      m_ColliderType: 1
  - first: {x: 0, y: -1, z: 0}
    second:
      m_TileIndex: 9
      m_TileSpriteIndex: 9
      m_TileMatrixIndex: 0
      m_TileColorIndex: 0
      m_ObjectToInstantiate: {fileID: 0}
      m_TileFlags: 1
      m_ColliderType: 1
  - first: {x: 1, y: -1, z: 0}
    second:
      m_TileIndex: 10
      m_TileSpriteIndex: 10
      m_TileMatrixIndex: 0
      m_TileColorIndex: 0
      m_ObjectToInstantiate: {fileID: 0}
      m_TileFlags: 1
      m_ColliderType: 1
  - first: {x: 2, y: -1, z: 0}
    second:
      m_TileIndex: 11
      m_TileSpriteIndex: 11
      m_TileMatrixIndex: 0
      m_TileColorIndex: 0
      m_ObjectToInstantiate: {fileID: 0}
      m_TileFlags: 1
      m_ColliderType: 1
  - first: {x: 3, y: -1, z: 0}
    second:
      m_TileIndex: 12
      m_TileSpriteIndex: 12
      m_TileMatrixIndex: 0
      m_TileColorIndex: 0
      m_ObjectToInstantiate: {fileID: 0}
      m_TileFlags: 1
      m_ColliderType: 1
  - first: {x: 4, y: -1, z: 0}
    second:
      m_TileIndex: 13
      m_TileSpriteIndex: 13
      m_TileMatrixIndex: 0
      m_TileColorIndex: 0
      m_ObjectToInstantiate: {fileID: 0}
      m_TileFlags: 1
      m_ColliderType: 1
  - first: {x: -2, y: 0, z: 0}
    second:
      m_TileIndex: 0
      m_TileSpriteIndex: 0
      m_TileMatrixIndex: 0
      m_TileColorIndex: 0
      m_ObjectToInstantiate: {fileID: 0}
      m_TileFlags: 1
      m_ColliderType: 1
  - first: {x: -1, y: 0, z: 0}
    second:
      m_TileIndex: 1
      m_TileSpriteIndex: 1
      m_TileMatrixIndex: 0
      m_TileColorIndex: 0
      m_ObjectToInstantiate: {fileID: 0}
      m_TileFlags: 1
      m_ColliderType: 1
  - first: {x: 0, y: 0, z: 0}
    second:
      m_TileIndex: 2
      m_TileSpriteIndex: 2
      m_TileMatrixIndex: 0
      m_TileColorIndex: 0
      m_ObjectToInstantiate: {fileID: 0}
      m_TileFlags: 1
      m_ColliderType: 1
  - first: {x: 1, y: 0, z: 0}
    second:
      m_TileIndex: 3
      m_TileSpriteIndex: 3
      m_TileMatrixIndex: 0
      m_TileColorIndex: 0
      m_ObjectToInstantiate: {fileID: 0}
      m_TileFlags: 1
      m_ColliderType: 1
  - first: {x: 2, y: 0, z: 0}
    second:
      m_TileIndex: 4
      m_TileSpriteIndex: 4
      m_TileMatrixIndex: 0
      m_TileColorIndex: 0
      m_ObjectToInstantiate: {fileID: 0}
      m_TileFlags: 1
      m_ColliderType: 1
  - first: {x: 3, y: 0, z: 0}
    second:
      m_TileIndex: 5
      m_TileSpriteIndex: 5
      m_TileMatrixIndex: 0
      m_TileColorIndex: 0
      m_ObjectToInstantiate: {fileID: 0}
      m_TileFlags: 1
      m_ColliderType: 1
  - first: {x: 4, y: 0, z: 0}
    second:
      m_TileIndex: 6
      m_TileSpriteIndex: 6
      m_TileMatrixIndex: 0
      m_TileColorIndex: 0
      m_ObjectToInstantiate: {fileID: 0}
      m_TileFlags: 1
      m_ColliderType: 1
  m_AnimatedTiles: {}
  m_TileAssetArray:
  - m_RefCount: 1
    m_Data: {fileID: 11400000, guid: dc65d524759bc184a9a1b62e5e2ff666, type: 2}
  - m_RefCount: 1
    m_Data: {fileID: 11400000, guid: 6576688c48c39ae4c99914d425a3a65f, type: 2}
  - m_RefCount: 1
    m_Data: {fileID: 11400000, guid: 7374b12ac2133da46bd0d220071829cf, type: 2}
  - m_RefCount: 1
    m_Data: {fileID: 11400000, guid: 60c9e363ae637914ba97f4a0f422d710, type: 2}
  - m_RefCount: 1
    m_Data: {fileID: 11400000, guid: 16a4a80c27eedaa40a2f113861349f66, type: 2}
  - m_RefCount: 1
    m_Data: {fileID: 11400000, guid: 53aad0d01ad854c4b848fa14b28c50bf, type: 2}
  - m_RefCount: 1
    m_Data: {fileID: 11400000, guid: 7f7b89cc2dea94543aca753b1e96f48e, type: 2}
  - m_RefCount: 1
    m_Data: {fileID: 11400000, guid: bc5cd24a6eeec0247a189c5a5df69804, type: 2}
  - m_RefCount: 1
    m_Data: {fileID: 11400000, guid: 281bebd01caecac4793225860c35b821, type: 2}
  - m_RefCount: 1
    m_Data: {fileID: 11400000, guid: d74b30805d6099f44bffaa13bd4a5741, type: 2}
  - m_RefCount: 1
    m_Data: {fileID: 11400000, guid: 68626caaf0fb2064dad246cff2bc7c76, type: 2}
  - m_RefCount: 1
    m_Data: {fileID: 11400000, guid: e7b106e3556ec1a418f86b9b51196914, type: 2}
  - m_RefCount: 1
    m_Data: {fileID: 11400000, guid: b4826743ad4af3148aba0d750af2a02a, type: 2}
  - m_RefCount: 1
    m_Data: {fileID: 11400000, guid: 8eeab3541d85b6b428fae2c270ea4f57, type: 2}
  - m_RefCount: 1
    m_Data: {fileID: 11400000, guid: 0fcd63521edb4da419b18a9d94286c66, type: 2}
  - m_RefCount: 1
    m_Data: {fileID: 11400000, guid: 2f4c8e75354210b4aa0dfe2ca3cf9695, type: 2}
  - m_RefCount: 1
    m_Data: {fileID: 11400000, guid: ec699ea7c3fc4d349b231150fed00e1e, type: 2}
  - m_RefCount: 1
    m_Data: {fileID: 11400000, guid: bf9b673caf5fabd47983c40377bb5627, type: 2}
  - m_RefCount: 1
    m_Data: {fileID: 11400000, guid: ca5022f011f97c34aa406f8bc232e322, type: 2}
  - m_RefCount: 1
    m_Data: {fileID: 11400000, guid: 62dfe95e27186114cab1219a7e33ffa5, type: 2}
  - m_RefCount: 1
    m_Data: {fileID: 11400000, guid: c282a02d282b1224f8b33d6209cc309e, type: 2}
  - m_RefCount: 1
    m_Data: {fileID: 11400000, guid: b7dabc4b5e6c9d94c8c4820b167e8136, type: 2}
  - m_RefCount: 1
    m_Data: {fileID: 11400000, guid: 197105ab32db3e842bf96e91be11aed3, type: 2}
  - m_RefCount: 1
    m_Data: {fileID: 11400000, guid: 8e456cf164e16c84795e3f17217721e8, type: 2}
  - m_RefCount: 1
    m_Data: {fileID: 11400000, guid: fefdc823e86eb084c84a25a7848aab3f, type: 2}
  - m_RefCount: 1
    m_Data: {fileID: 11400000, guid: 52b92b94c54d8ba46a3bbd6fbb492c45, type: 2}
  - m_RefCount: 1
    m_Data: {fileID: 11400000, guid: 032f292d64889dd4aa41834f3b6a9f9a, type: 2}
  - m_RefCount: 1
    m_Data: {fileID: 11400000, guid: 57bcb63332a542c4bb4d1efa303b4a6e, type: 2}
  - m_RefCount: 1
    m_Data: {fileID: 11400000, guid: bff085105dbc4554295a8c969139f5db, type: 2}
  - m_RefCount: 1
    m_Data: {fileID: 11400000, guid: 45dd8de5bdaae0042809cc4f286d0644, type: 2}
  - m_RefCount: 1
    m_Data: {fileID: 11400000, guid: 72f1d2f743594834abd1308dc43e31b0, type: 2}
  - m_RefCount: 1
    m_Data: {fileID: 11400000, guid: d75654d88dd5c9143b69b3c4ba4ee87c, type: 2}
  - m_RefCount: 1
    m_Data: {fileID: 11400000, guid: 94e0ecb212a5a06448ced61e0d413757, type: 2}
  - m_RefCount: 1
    m_Data: {fileID: 11400000, guid: c832ddba48ccd5747876d211d9297875, type: 2}
  - m_RefCount: 1
    m_Data: {fileID: 11400000, guid: 6a376244361f1184e808f0b2f31b27c1, type: 2}
  - m_RefCount: 1
    m_Data: {fileID: 11400000, guid: 8fd465d6187ec1d4e852bff819c29cf2, type: 2}
  - m_RefCount: 1
    m_Data: {fileID: 11400000, guid: 5b50efc754ad4a346b40fbdad74ca9a5, type: 2}
  - m_RefCount: 1
    m_Data: {fileID: 11400000, guid: 5c37b10226211074499582babea7c9cb, type: 2}
  - m_RefCount: 1
    m_Data: {fileID: 11400000, guid: 416202b4a016d314995fb5bbbfbba819, type: 2}
  - m_RefCount: 1
    m_Data: {fileID: 11400000, guid: 329187563c8293c429a11a28b5bfd836, type: 2}
  - m_RefCount: 1
    m_Data: {fileID: 11400000, guid: 806e67db3e718dc42b39d55eab2e7393, type: 2}
  - m_RefCount: 1
    m_Data: {fileID: 11400000, guid: 4b3b72ca7955c064eb66d0f0b55cebe6, type: 2}
  - m_RefCount: 1
    m_Data: {fileID: 11400000, guid: 413d6d877e078ea4db40f08f09b01463, type: 2}
  - m_RefCount: 1
    m_Data: {fileID: 11400000, guid: b533f831dd355e242a7ebdcd16055d97, type: 2}
  - m_RefCount: 1
    m_Data: {fileID: 11400000, guid: f1b05af2ae2a09b43934e60c6cf462e5, type: 2}
  - m_RefCount: 1
    m_Data: {fileID: 11400000, guid: c428bbfab00746f4395afe741d31aab0, type: 2}
  - m_RefCount: 1
    m_Data: {fileID: 11400000, guid: 3ac9c41f6dd2832468f377aae941c66a, type: 2}
  - m_RefCount: 1
    m_Data: {fileID: 11400000, guid: 2330245b8c101fd47a77c7c691715542, type: 2}
  - m_RefCount: 1
    m_Data: {fileID: 11400000, guid: e1994772d305e0340a83b99bf06001fe, type: 2}
  - m_RefCount: 1
    m_Data: {fileID: 11400000, guid: 21d95540636d21241bfb2794397bf664, type: 2}
  - m_RefCount: 1
    m_Data: {fileID: 11400000, guid: 2944d5cbd763a94419836a1aedf143b1, type: 2}
  - m_RefCount: 1
    m_Data: {fileID: 11400000, guid: 041bc82115280ab49857d6c4bcfd176e, type: 2}
  - m_RefCount: 1
    m_Data: {fileID: 11400000, guid: ee60c59c3ff0dc7499bbf272d11db7f7, type: 2}
  - m_RefCount: 1
    m_Data: {fileID: 11400000, guid: 592065ccb115a704d8caff6e0ecfee5b, type: 2}
  - m_RefCount: 1
    m_Data: {fileID: 11400000, guid: 69da4ab55b6fbf34bb46574d991b4a35, type: 2}
  - m_RefCount: 1
    m_Data: {fileID: 11400000, guid: c201f80944ca3ab47b083a8cc86ba097, type: 2}
  - m_RefCount: 1
    m_Data: {fileID: 11400000, guid: 428411afd1616bb41b40859f90607b68, type: 2}
  - m_RefCount: 1
    m_Data: {fileID: 11400000, guid: 698ac92255d6f1149ae52d0f75484320, type: 2}
  - m_RefCount: 1
    m_Data: {fileID: 11400000, guid: 757cea9a20e096b42982e85c7d85ec1a, type: 2}
  - m_RefCount: 1
    m_Data: {fileID: 11400000, guid: 17f8cad36f92f0e429ac897beeb66593, type: 2}
  - m_RefCount: 1
    m_Data: {fileID: 11400000, guid: 328b58094eac73b4c8c9aea5ec191b14, type: 2}
  - m_RefCount: 1
    m_Data: {fileID: 11400000, guid: 12131091ccf6a9144832d34b7c8909ae, type: 2}
  - m_RefCount: 1
    m_Data: {fileID: 11400000, guid: cf07c1704cf960e46a3f887e6643fa10, type: 2}
  - m_RefCount: 1
    m_Data: {fileID: 11400000, guid: 7a662dc0ae3b3644ca51e177cbaed57b, type: 2}
  - m_RefCount: 1
    m_Data: {fileID: 11400000, guid: 072cea1fbb2b75e4488dde3a0e4afdb5, type: 2}
  - m_RefCount: 1
    m_Data: {fileID: 11400000, guid: aacf471127d91f24a90a0b1b692cbb53, type: 2}
  - m_RefCount: 1
    m_Data: {fileID: 11400000, guid: 45dfe7d5fc6a2b9489c58269c81b13a4, type: 2}
  - m_RefCount: 1
    m_Data: {fileID: 11400000, guid: 28354511389a3d9419fbfd23c2ccc8a0, type: 2}
  - m_RefCount: 1
    m_Data: {fileID: 11400000, guid: 42c7a62d278d8af469094e1fc5172c74, type: 2}
  - m_RefCount: 1
    m_Data: {fileID: 11400000, guid: 0392f810897db4647902efb11b067846, type: 2}
  - m_RefCount: 1
    m_Data: {fileID: 11400000, guid: e54a267c946c4714c8c5e7b47496b57a, type: 2}
  - m_RefCount: 1
    m_Data: {fileID: 11400000, guid: e092b7fd97f1a794a924f41056554d12, type: 2}
  - m_RefCount: 1
    m_Data: {fileID: 11400000, guid: c06d2ae90b10b5b44bf62ad2f9f86f34, type: 2}
  - m_RefCount: 1
    m_Data: {fileID: 11400000, guid: 4b11a3cb71231314cb0f512e4a91ffcc, type: 2}
  - m_RefCount: 1
    m_Data: {fileID: 11400000, guid: dbab18eb3b5e65c4887e177a91bb2b75, type: 2}
  - m_RefCount: 1
    m_Data: {fileID: 11400000, guid: 5ce1824cf84efd247895bff820c0e051, type: 2}
  - m_RefCount: 1
    m_Data: {fileID: 11400000, guid: f96a30aaa6ed9d54391517abb40e40c2, type: 2}
  - m_RefCount: 1
    m_Data: {fileID: 11400000, guid: 83aa0520c0861b84cbe604d8fc4f157d, type: 2}
  - m_RefCount: 1
    m_Data: {fileID: 11400000, guid: d1c571f42818cc34cab97df86fd665d2, type: 2}
  - m_RefCount: 1
    m_Data: {fileID: 11400000, guid: 0e2ad96cc5d1f1549815364f3d507035, type: 2}
  - m_RefCount: 1
    m_Data: {fileID: 11400000, guid: c2a172b9fbdc38243a6f0971ac14fe3b, type: 2}
  - m_RefCount: 1
    m_Data: {fileID: 11400000, guid: f75c6e9d7b6b2ce47a33d19ac0d5402e, type: 2}
  - m_RefCount: 1
    m_Data: {fileID: 11400000, guid: f87b85ace0fbba1489832ddbf3083d0d, type: 2}
  - m_RefCount: 1
    m_Data: {fileID: 11400000, guid: 474df7e1e043dc642a3a31dec63b2e0f, type: 2}
  - m_RefCount: 1
    m_Data: {fileID: 11400000, guid: 71ed36ecba8665b46b7a6f82648e70e0, type: 2}
  - m_RefCount: 1
    m_Data: {fileID: 11400000, guid: 843eeb8ba380c464babbabb0a3b596da, type: 2}
  - m_RefCount: 1
    m_Data: {fileID: 11400000, guid: 8727cc6fd84ab7141aa465f39887b4b3, type: 2}
  - m_RefCount: 1
    m_Data: {fileID: 11400000, guid: 006594760f86e564cbc3546e13c1d52b, type: 2}
  - m_RefCount: 1
    m_Data: {fileID: 11400000, guid: 2999cccf3ad09c9479c1ba6f5a1d2e01, type: 2}
  - m_RefCount: 1
    m_Data: {fileID: 11400000, guid: ef84b8ce05a842942a728c9d93712816, type: 2}
  - m_RefCount: 1
    m_Data: {fileID: 11400000, guid: 19c79892c97a4284a92914d70ab4c08e, type: 2}
  - m_RefCount: 1
    m_Data: {fileID: 11400000, guid: 79178c5ba28d07d4db85577d1bea3715, type: 2}
  - m_RefCount: 1
    m_Data: {fileID: 11400000, guid: 1bf70dfd4e031294986a77a869ad4983, type: 2}
  - m_RefCount: 1
    m_Data: {fileID: 11400000, guid: 62512c1df2d9076468af2242540a4ba5, type: 2}
  - m_RefCount: 1
    m_Data: {fileID: 11400000, guid: ff8befc8c2853b7418656343b037605f, type: 2}
  - m_RefCount: 1
    m_Data: {fileID: 11400000, guid: ccc679a40c323314bacc82bddce5380d, type: 2}
  - m_RefCount: 1
    m_Data: {fileID: 11400000, guid: 0ce8a2a876dc94848b28c780012ce05d, type: 2}
  - m_RefCount: 1
    m_Data: {fileID: 11400000, guid: efc66159a5bc26f4eb4b6bb35b65014c, type: 2}
  - m_RefCount: 1
    m_Data: {fileID: 11400000, guid: 171623cd22395594fad220eb4cf09821, type: 2}
  - m_RefCount: 1
    m_Data: {fileID: 11400000, guid: 901093f30ae72cc4f85f7b48677c3032, type: 2}
  - m_RefCount: 1
    m_Data: {fileID: 11400000, guid: 5ca614ad9f34e4d41b542a8be8a17269, type: 2}
  - m_RefCount: 1
    m_Data: {fileID: 11400000, guid: 3cd7d84509a11364b98ea01868aef6dd, type: 2}
  - m_RefCount: 1
    m_Data: {fileID: 11400000, guid: 6cd03a02e7866164f85025f8b5ca9a93, type: 2}
  - m_RefCount: 1
    m_Data: {fileID: 11400000, guid: ba26be50a65f4374a984fdde1e3265b1, type: 2}
  - m_RefCount: 1
    m_Data: {fileID: 11400000, guid: e1dc9dea7c93d964986923ac97554f01, type: 2}
  - m_RefCount: 1
    m_Data: {fileID: 11400000, guid: 852bb33bbbfe4564fbc1def3407aed5f, type: 2}
  - m_RefCount: 1
    m_Data: {fileID: 11400000, guid: d8f0dd35d360fd0438f1571d4516cfbb, type: 2}
  - m_RefCount: 1
    m_Data: {fileID: 11400000, guid: f6d4a9781d181df448bf7c79e3faab19, type: 2}
  m_TileSpriteArray:
  - m_RefCount: 1
    m_Data: {fileID: 21300000, guid: 078d2db4f669b954c82e7fd486e8d4e5, type: 3}
  - m_RefCount: 1
    m_Data: {fileID: 21300002, guid: 078d2db4f669b954c82e7fd486e8d4e5, type: 3}
  - m_RefCount: 1
    m_Data: {fileID: 21300004, guid: 078d2db4f669b954c82e7fd486e8d4e5, type: 3}
  - m_RefCount: 1
    m_Data: {fileID: 21300006, guid: 078d2db4f669b954c82e7fd486e8d4e5, type: 3}
  - m_RefCount: 1
    m_Data: {fileID: 21300008, guid: 078d2db4f669b954c82e7fd486e8d4e5, type: 3}
  - m_RefCount: 1
    m_Data: {fileID: 21300010, guid: 078d2db4f669b954c82e7fd486e8d4e5, type: 3}
  - m_RefCount: 1
    m_Data: {fileID: 21300012, guid: 078d2db4f669b954c82e7fd486e8d4e5, type: 3}
  - m_RefCount: 1
    m_Data: {fileID: 21300014, guid: 078d2db4f669b954c82e7fd486e8d4e5, type: 3}
  - m_RefCount: 1
    m_Data: {fileID: 21300016, guid: 078d2db4f669b954c82e7fd486e8d4e5, type: 3}
  - m_RefCount: 1
    m_Data: {fileID: 21300018, guid: 078d2db4f669b954c82e7fd486e8d4e5, type: 3}
  - m_RefCount: 1
    m_Data: {fileID: 21300020, guid: 078d2db4f669b954c82e7fd486e8d4e5, type: 3}
  - m_RefCount: 1
    m_Data: {fileID: 21300022, guid: 078d2db4f669b954c82e7fd486e8d4e5, type: 3}
  - m_RefCount: 1
    m_Data: {fileID: 21300024, guid: 078d2db4f669b954c82e7fd486e8d4e5, type: 3}
  - m_RefCount: 1
    m_Data: {fileID: 21300026, guid: 078d2db4f669b954c82e7fd486e8d4e5, type: 3}
  - m_RefCount: 1
    m_Data: {fileID: 21300028, guid: 078d2db4f669b954c82e7fd486e8d4e5, type: 3}
  - m_RefCount: 1
    m_Data: {fileID: 21300030, guid: 078d2db4f669b954c82e7fd486e8d4e5, type: 3}
  - m_RefCount: 1
    m_Data: {fileID: 21300032, guid: 078d2db4f669b954c82e7fd486e8d4e5, type: 3}
  - m_RefCount: 1
    m_Data: {fileID: 21300034, guid: 078d2db4f669b954c82e7fd486e8d4e5, type: 3}
  - m_RefCount: 1
    m_Data: {fileID: 21300036, guid: 078d2db4f669b954c82e7fd486e8d4e5, type: 3}
  - m_RefCount: 1
    m_Data: {fileID: 21300038, guid: 078d2db4f669b954c82e7fd486e8d4e5, type: 3}
  - m_RefCount: 1
    m_Data: {fileID: 21300040, guid: 078d2db4f669b954c82e7fd486e8d4e5, type: 3}
  - m_RefCount: 1
    m_Data: {fileID: 21300042, guid: 078d2db4f669b954c82e7fd486e8d4e5, type: 3}
  - m_RefCount: 1
    m_Data: {fileID: 21300044, guid: 078d2db4f669b954c82e7fd486e8d4e5, type: 3}
  - m_RefCount: 1
    m_Data: {fileID: 21300046, guid: 078d2db4f669b954c82e7fd486e8d4e5, type: 3}
  - m_RefCount: 1
    m_Data: {fileID: 21300048, guid: 078d2db4f669b954c82e7fd486e8d4e5, type: 3}
  - m_RefCount: 1
    m_Data: {fileID: 21300050, guid: 078d2db4f669b954c82e7fd486e8d4e5, type: 3}
  - m_RefCount: 1
    m_Data: {fileID: 21300052, guid: 078d2db4f669b954c82e7fd486e8d4e5, type: 3}
  - m_RefCount: 1
    m_Data: {fileID: 21300054, guid: 078d2db4f669b954c82e7fd486e8d4e5, type: 3}
  - m_RefCount: 1
    m_Data: {fileID: 21300056, guid: 078d2db4f669b954c82e7fd486e8d4e5, type: 3}
  - m_RefCount: 1
    m_Data: {fileID: 21300058, guid: 078d2db4f669b954c82e7fd486e8d4e5, type: 3}
  - m_RefCount: 1
    m_Data: {fileID: 21300060, guid: 078d2db4f669b954c82e7fd486e8d4e5, type: 3}
  - m_RefCount: 1
    m_Data: {fileID: 21300062, guid: 078d2db4f669b954c82e7fd486e8d4e5, type: 3}
  - m_RefCount: 1
    m_Data: {fileID: 21300064, guid: 078d2db4f669b954c82e7fd486e8d4e5, type: 3}
  - m_RefCount: 1
    m_Data: {fileID: 21300066, guid: 078d2db4f669b954c82e7fd486e8d4e5, type: 3}
  - m_RefCount: 1
    m_Data: {fileID: 21300068, guid: 078d2db4f669b954c82e7fd486e8d4e5, type: 3}
  - m_RefCount: 1
    m_Data: {fileID: 21300070, guid: 078d2db4f669b954c82e7fd486e8d4e5, type: 3}
  - m_RefCount: 1
    m_Data: {fileID: 21300072, guid: 078d2db4f669b954c82e7fd486e8d4e5, type: 3}
  - m_RefCount: 1
    m_Data: {fileID: 21300074, guid: 078d2db4f669b954c82e7fd486e8d4e5, type: 3}
  - m_RefCount: 1
    m_Data: {fileID: 21300076, guid: 078d2db4f669b954c82e7fd486e8d4e5, type: 3}
  - m_RefCount: 1
    m_Data: {fileID: 21300078, guid: 078d2db4f669b954c82e7fd486e8d4e5, type: 3}
  - m_RefCount: 1
    m_Data: {fileID: 21300080, guid: 078d2db4f669b954c82e7fd486e8d4e5, type: 3}
  - m_RefCount: 1
    m_Data: {fileID: 21300082, guid: 078d2db4f669b954c82e7fd486e8d4e5, type: 3}
  - m_RefCount: 1
    m_Data: {fileID: 21300084, guid: 078d2db4f669b954c82e7fd486e8d4e5, type: 3}
  - m_RefCount: 1
    m_Data: {fileID: 21300086, guid: 078d2db4f669b954c82e7fd486e8d4e5, type: 3}
  - m_RefCount: 1
    m_Data: {fileID: 21300088, guid: 078d2db4f669b954c82e7fd486e8d4e5, type: 3}
  - m_RefCount: 1
    m_Data: {fileID: 21300090, guid: 078d2db4f669b954c82e7fd486e8d4e5, type: 3}
  - m_RefCount: 1
    m_Data: {fileID: 21300092, guid: 078d2db4f669b954c82e7fd486e8d4e5, type: 3}
  - m_RefCount: 1
    m_Data: {fileID: 21300094, guid: 078d2db4f669b954c82e7fd486e8d4e5, type: 3}
  - m_RefCount: 1
    m_Data: {fileID: 21300096, guid: 078d2db4f669b954c82e7fd486e8d4e5, type: 3}
  - m_RefCount: 1
    m_Data: {fileID: 21300098, guid: 078d2db4f669b954c82e7fd486e8d4e5, type: 3}
  - m_RefCount: 1
    m_Data: {fileID: 21300100, guid: 078d2db4f669b954c82e7fd486e8d4e5, type: 3}
  - m_RefCount: 1
    m_Data: {fileID: 21300102, guid: 078d2db4f669b954c82e7fd486e8d4e5, type: 3}
  - m_RefCount: 1
    m_Data: {fileID: 21300104, guid: 078d2db4f669b954c82e7fd486e8d4e5, type: 3}
  - m_RefCount: 1
    m_Data: {fileID: 21300106, guid: 078d2db4f669b954c82e7fd486e8d4e5, type: 3}
  - m_RefCount: 1
    m_Data: {fileID: 21300108, guid: 078d2db4f669b954c82e7fd486e8d4e5, type: 3}
  - m_RefCount: 1
    m_Data: {fileID: 21300110, guid: 078d2db4f669b954c82e7fd486e8d4e5, type: 3}
  - m_RefCount: 1
    m_Data: {fileID: 21300112, guid: 078d2db4f669b954c82e7fd486e8d4e5, type: 3}
  - m_RefCount: 1
    m_Data: {fileID: 21300114, guid: 078d2db4f669b954c82e7fd486e8d4e5, type: 3}
  - m_RefCount: 1
    m_Data: {fileID: 21300116, guid: 078d2db4f669b954c82e7fd486e8d4e5, type: 3}
  - m_RefCount: 1
    m_Data: {fileID: 21300118, guid: 078d2db4f669b954c82e7fd486e8d4e5, type: 3}
  - m_RefCount: 1
    m_Data: {fileID: 21300120, guid: 078d2db4f669b954c82e7fd486e8d4e5, type: 3}
  - m_RefCount: 1
    m_Data: {fileID: 21300122, guid: 078d2db4f669b954c82e7fd486e8d4e5, type: 3}
  - m_RefCount: 1
    m_Data: {fileID: 21300124, guid: 078d2db4f669b954c82e7fd486e8d4e5, type: 3}
  - m_RefCount: 1
    m_Data: {fileID: 21300126, guid: 078d2db4f669b954c82e7fd486e8d4e5, type: 3}
  - m_RefCount: 1
    m_Data: {fileID: 21300128, guid: 078d2db4f669b954c82e7fd486e8d4e5, type: 3}
  - m_RefCount: 1
    m_Data: {fileID: 21300130, guid: 078d2db4f669b954c82e7fd486e8d4e5, type: 3}
  - m_RefCount: 1
    m_Data: {fileID: 21300132, guid: 078d2db4f669b954c82e7fd486e8d4e5, type: 3}
  - m_RefCount: 1
    m_Data: {fileID: 21300134, guid: 078d2db4f669b954c82e7fd486e8d4e5, type: 3}
  - m_RefCount: 1
    m_Data: {fileID: 21300136, guid: 078d2db4f669b954c82e7fd486e8d4e5, type: 3}
  - m_RefCount: 1
    m_Data: {fileID: 21300138, guid: 078d2db4f669b954c82e7fd486e8d4e5, type: 3}
  - m_RefCount: 1
    m_Data: {fileID: 21300140, guid: 078d2db4f669b954c82e7fd486e8d4e5, type: 3}
  - m_RefCount: 1
    m_Data: {fileID: 21300142, guid: 078d2db4f669b954c82e7fd486e8d4e5, type: 3}
  - m_RefCount: 1
    m_Data: {fileID: 21300144, guid: 078d2db4f669b954c82e7fd486e8d4e5, type: 3}
  - m_RefCount: 1
    m_Data: {fileID: 21300146, guid: 078d2db4f669b954c82e7fd486e8d4e5, type: 3}
  - m_RefCount: 1
    m_Data: {fileID: 21300148, guid: 078d2db4f669b954c82e7fd486e8d4e5, type: 3}
  - m_RefCount: 1
    m_Data: {fileID: 21300150, guid: 078d2db4f669b954c82e7fd486e8d4e5, type: 3}
  - m_RefCount: 1
    m_Data: {fileID: 21300152, guid: 078d2db4f669b954c82e7fd486e8d4e5, type: 3}
  - m_RefCount: 1
    m_Data: {fileID: 21300154, guid: 078d2db4f669b954c82e7fd486e8d4e5, type: 3}
  - m_RefCount: 1
    m_Data: {fileID: 21300156, guid: 078d2db4f669b954c82e7fd486e8d4e5, type: 3}
  - m_RefCount: 1
    m_Data: {fileID: 21300158, guid: 078d2db4f669b954c82e7fd486e8d4e5, type: 3}
  - m_RefCount: 1
    m_Data: {fileID: 21300160, guid: 078d2db4f669b954c82e7fd486e8d4e5, type: 3}
  - m_RefCount: 1
    m_Data: {fileID: 21300162, guid: 078d2db4f669b954c82e7fd486e8d4e5, type: 3}
  - m_RefCount: 1
    m_Data: {fileID: 21300164, guid: 078d2db4f669b954c82e7fd486e8d4e5, type: 3}
  - m_RefCount: 1
    m_Data: {fileID: 21300166, guid: 078d2db4f669b954c82e7fd486e8d4e5, type: 3}
  - m_RefCount: 1
    m_Data: {fileID: 21300168, guid: 078d2db4f669b954c82e7fd486e8d4e5, type: 3}
  - m_RefCount: 1
    m_Data: {fileID: 21300170, guid: 078d2db4f669b954c82e7fd486e8d4e5, type: 3}
  - m_RefCount: 1
    m_Data: {fileID: 21300172, guid: 078d2db4f669b954c82e7fd486e8d4e5, type: 3}
  - m_RefCount: 1
    m_Data: {fileID: 21300174, guid: 078d2db4f669b954c82e7fd486e8d4e5, type: 3}
  - m_RefCount: 1
    m_Data: {fileID: 21300176, guid: 078d2db4f669b954c82e7fd486e8d4e5, type: 3}
  - m_RefCount: 1
    m_Data: {fileID: 21300178, guid: 078d2db4f669b954c82e7fd486e8d4e5, type: 3}
  - m_RefCount: 1
    m_Data: {fileID: 21300180, guid: 078d2db4f669b954c82e7fd486e8d4e5, type: 3}
  - m_RefCount: 1
    m_Data: {fileID: 21300182, guid: 078d2db4f669b954c82e7fd486e8d4e5, type: 3}
  - m_RefCount: 1
    m_Data: {fileID: 21300184, guid: 078d2db4f669b954c82e7fd486e8d4e5, type: 3}
  - m_RefCount: 1
    m_Data: {fileID: 21300186, guid: 078d2db4f669b954c82e7fd486e8d4e5, type: 3}
  - m_RefCount: 1
    m_Data: {fileID: 21300188, guid: 078d2db4f669b954c82e7fd486e8d4e5, type: 3}
  - m_RefCount: 1
    m_Data: {fileID: 21300190, guid: 078d2db4f669b954c82e7fd486e8d4e5, type: 3}
  - m_RefCount: 1
    m_Data: {fileID: 21300192, guid: 078d2db4f669b954c82e7fd486e8d4e5, type: 3}
  - m_RefCount: 1
    m_Data: {fileID: 21300194, guid: 078d2db4f669b954c82e7fd486e8d4e5, type: 3}
  - m_RefCount: 1
    m_Data: {fileID: 21300196, guid: 078d2db4f669b954c82e7fd486e8d4e5, type: 3}
  - m_RefCount: 1
    m_Data: {fileID: 21300198, guid: 078d2db4f669b954c82e7fd486e8d4e5, type: 3}
  - m_RefCount: 1
    m_Data: {fileID: 21300200, guid: 078d2db4f669b954c82e7fd486e8d4e5, type: 3}
  - m_RefCount: 1
    m_Data: {fileID: 21300202, guid: 078d2db4f669b954c82e7fd486e8d4e5, type: 3}
  - m_RefCount: 1
    m_Data: {fileID: 21300204, guid: 078d2db4f669b954c82e7fd486e8d4e5, type: 3}
  - m_RefCount: 1
    m_Data: {fileID: 21300206, guid: 078d2db4f669b954c82e7fd486e8d4e5, type: 3}
  - m_RefCount: 1
    m_Data: {fileID: 21300208, guid: 078d2db4f669b954c82e7fd486e8d4e5, type: 3}
  - m_RefCount: 1
    m_Data: {fileID: 21300210, guid: 078d2db4f669b954c82e7fd486e8d4e5, type: 3}
  - m_RefCount: 1
    m_Data: {fileID: 21300212, guid: 078d2db4f669b954c82e7fd486e8d4e5, type: 3}
  - m_RefCount: 1
    m_Data: {fileID: 21300214, guid: 078d2db4f669b954c82e7fd486e8d4e5, type: 3}
  m_TileMatrixArray:
  - m_RefCount: 108
    m_Data:
      e00: 1
      e01: 0
      e02: 0
      e03: 0
      e10: 0
      e11: 1
      e12: 0
      e13: 0
      e20: 0
      e21: 0
      e22: 1
      e23: 0
      e30: 0
      e31: 0
      e32: 0
      e33: 1
  m_TileColorArray:
  - m_RefCount: 108
    m_Data: {r: 1, g: 1, b: 1, a: 1}
  m_AnimationFrameRate: 1
  m_Color: {r: 1, g: 1, b: 1, a: 1}
  m_Origin: {x: -2, y: -15, z: 0}
  m_Size: {x: 7, y: 16, z: 1}
  m_TileAnchor: {x: 0.5, y: 0.5, z: 0}
  m_TileOrientation: 0
  m_TileOrientationMatrix:
    e00: 1
    e01: 0
    e02: 0
    e03: 0
    e10: 0
    e11: 1
    e12: 0
    e13: 0
    e20: 0
    e21: 0
    e22: 1
    e23: 0
    e30: 0
    e31: 0
    e32: 0
    e33: 1
